<svg version="1.1"
	 xmlns="http://www.w3.org/2000/svg" xmlns:xlink="http://www.w3.org/1999/xlink" xmlns:a="http://ns.adobe.com/AdobeSVGViewerExtensions/3.0/"
	 x="0px" y="0px"  viewBox="0 0 15 23" style="enable-background:new 0 0 15 23;"
	 xml:space="preserve">
<g style="opacity:0.6;">
	<path style="fill:none;stroke:#000000;stroke-width:1.2038;stroke-miterlimit:10;" d="M9,7.4c0,0-2.7-2.7-1-6.5
		c0.1-0.2-0.2-0.4-0.4-0.3C5.7,1.9,2.1,4.9,3.7,9.9c0,0-2.4-1-2.7-1.8c0,0-2.7,9.1,6.4,9.1c9.8,0,6-8.4,5.3-9.2s-0.3-3.3-0.3-3.3
		S9.6,4.9,9,7.4z"/>
	<rect x="4.4" y="19.6" width="6" height="1"/>
	<polyline style="fill:none;stroke:#000000;stroke-miterlimit:10;" points="0.4,19.6 2.4,22.1 12.4,22.1 14.4,19.6 	"/>
</g>
</svg>
