<svg version="1.1"
	 xmlns="http://www.w3.org/2000/svg" xmlns:xlink="http://www.w3.org/1999/xlink" xmlns:a="http://ns.adobe.com/AdobeSVGViewerExtensions/3.0/"
	 x="0px" y="0px" viewBox="0 0 22 24" style="enable-background:new 0 0 22 24;"
	 xml:space="preserve">
<g style="opacity:0.6;">
	<g>
		<path d="M16.2,5.8c0.7,0,1.1,0.6,1.1,1.2v6.4V14l0.5,0.3c1.5,0.8,2.5,2.3,2.5,4c0,2.5-2,4.5-4.5,4.5s-4.5-2-4.5-4.5
			c0-1.7,0.9-3.2,2.5-4l0.5-0.3v-0.6V7c0-0.7,0.6-1.2,1.2-1.2h0.8 M16.1,4.8h-0.5c-1.2,0-2.2,1-2.2,2.2v6.4c-1.8,0.9-3,2.8-3,4.9
			c0,3,2.5,5.5,5.5,5.5s5.5-2.5,5.5-5.5c0-2.1-1.2-4-3-4.9V7C18.3,5.8,17.3,4.8,16.1,4.8L16.1,4.8z"/>
	</g>
	<rect x="15.3" y="7.8" width="1" height="10"/>
	<circle style="fill:none;stroke:#000000;stroke-miterlimit:10;" cx="15.8" cy="18.3" r="1.5"/>
	<path style="fill:none;stroke:#000000;stroke-width:0.9952;stroke-miterlimit:10;" d="M10.3,20.5c-0.7,0.2-1.5,0.3-2.3,0.3
		c-4.1,0-7.5-3-7.5-6.8S8,0.8,8,0.8s3.1,3.9,5.3,7.7"/>
	<path style="fill:none;stroke:#000000;stroke-miterlimit:10;" d="M5.3,9.1c-1,1.4-2,3.4-2,4.7c0,1.8,1.2,3.7,3,4"/>
</g>
</svg>
